﻿biomes.png=2773634767
checksums.txt=2855857339
dtm.raw=3926461614
dtm_processed.raw=784794308
main.ttw=2537157657
main.ttw.bak=1205624509
main.ttw.loadFailed=2593849788
map_info.xml=3386758883
prefabs.xml=1260574634
radiation.png=2992814359
spawnpoints.xml=1240593213
splat3.png=3219002380
splat3_processed.png=1929774588
splat4.png=2730693305
splat4_processed.png=4003763271
